<?xml version="1.0" encoding="UTF-8" standalone="no"?>
<!-- Created with Inkscape (http://www.inkscape.org/) -->

<svg
   xmlns:dc="http://purl.org/dc/elements/1.1/"
   xmlns:cc="http://creativecommons.org/ns#"
   xmlns:rdf="http://www.w3.org/1999/02/22-rdf-syntax-ns#"
   xmlns:svg="http://www.w3.org/2000/svg"
   xmlns="http://www.w3.org/2000/svg"
   xmlns:sodipodi="http://sodipodi.sourceforge.net/DTD/sodipodi-0.dtd"
   xmlns:inkscape="http://www.inkscape.org/namespaces/inkscape"
   width="64px"
   height="64px"
   viewBox="0 0 64 64"
   version="1.1"
   id="SVGRoot"
   sodipodi:docname="frame_s_0.svg"
   inkscape:version="0.92.2 (5c3e80d, 2017-08-06)"
   inkscape:export-filename="C:\Users\FTS\git\simpSpace\game\android\rawAssets\frames\s_0.png"
   inkscape:export-xdpi="120"
   inkscape:export-ydpi="120">
  <sodipodi:namedview
     id="base"
     pagecolor="#ffffff"
     bordercolor="#666666"
     borderopacity="1.0"
     inkscape:pageopacity="0.0"
     inkscape:pageshadow="2"
     inkscape:zoom="3.9056601"
     inkscape:cx="25.319053"
     inkscape:cy="66.643455"
     inkscape:document-units="px"
     inkscape:current-layer="layer1"
     showgrid="false"
     inkscape:window-width="1280"
     inkscape:window-height="953"
     inkscape:window-x="-4"
     inkscape:window-y="-4"
     inkscape:window-maximized="1"
     inkscape:grid-bbox="true" />
  <defs
     id="defs815" />
  <metadata
     id="metadata818">
    <rdf:RDF>
      <cc:Work
         rdf:about="">
        <dc:format>image/svg+xml</dc:format>
        <dc:type
           rdf:resource="http://purl.org/dc/dcmitype/StillImage" />
        <dc:title />
      </cc:Work>
    </rdf:RDF>
  </metadata>
  <g
     inkscape:label="Ebene 1"
     inkscape:groupmode="layer"
     id="layer1">
    <path
       inkscape:connector-curvature="0"
       id="rect1374-0-1-7-3-8-0"
       d="M 12,48 V 49.617188 52.5 55.382812 C 12,56.278734 13.449897,57 15.250397,57 h 6.499604 6.499604 3.250396 V 55.382812 52.5 49.617188 C 31.500001,48.721265 30.050104,48 28.249605,48 h -6.499604 -6.499604 z"
       style="fill:#f5f4f2;fill-opacity:1;stroke:none;stroke-width:0.39073393;stroke-opacity:1" />
    <path
       id="rect1561-2-60"
       d="m 42.201903,52.469911 -2.471419,4.81 -3.833,4.19 h 6.286234 7.713766 v -9 z"
       style="fill:#c8c8c8;fill-opacity:1;stroke:none;stroke-width:0.55423725;stroke-opacity:1"
       inkscape:connector-curvature="0"
       sodipodi:nodetypes="ccccccc" />
    <g
       id="g963">
      <path
         sodipodi:nodetypes="ccccccccccccc"
         inkscape:connector-curvature="0"
         id="rect898"
         d="M 12,16 V 28 H 0 v 8 h 12 v 12 h 8 V 36 H 32 V 28 H 20 V 16 Z"
         style="fill:#000000;fill-opacity:1;stroke:none;stroke-width:1.07780492;stroke-miterlimit:4;stroke-dasharray:none;stroke-opacity:0.47058824" />
      <path
         sodipodi:nodetypes="ccccccccccccc"
         inkscape:connector-curvature="0"
         id="rect898-1"
         d="M 13,17 V 29 H 1 v 6 h 12 v 12 h 6 V 35 H 32 V 29 H 19 V 17 Z"
         style="fill:#787878;fill-opacity:1;stroke:none;stroke-width:1.01044214;stroke-miterlimit:4;stroke-dasharray:none;stroke-opacity:0.47058824" />
    </g>
    <g
       id="g963-4"
       transform="matrix(-1,0,0,1,64,0)">
      <path
         sodipodi:nodetypes="ccccccccccccc"
         inkscape:connector-curvature="0"
         id="rect898-0"
         d="M 12,16 V 28 H 0 v 8 h 12 v 12 h 8 V 36 H 32 V 28 H 20 V 16 Z"
         style="fill:#000000;fill-opacity:1;stroke:none;stroke-width:1.07780492;stroke-miterlimit:4;stroke-dasharray:none;stroke-opacity:0.47058824" />
      <path
         sodipodi:nodetypes="ccccccccccccc"
         inkscape:connector-curvature="0"
         id="rect898-1-2"
         d="M 13,17 V 29 H 1 v 6 h 12 v 12 h 6 V 35 H 32 V 29 H 19 V 17 Z"
         style="fill:#787878;fill-opacity:1;stroke:none;stroke-width:1.01044214;stroke-miterlimit:4;stroke-dasharray:none;stroke-opacity:0.47058824" />
    </g>
  </g>
</svg>
